{
	"id": "4",
	"title": "A scuola",
	"desc": "Ballerini",
	"reputation_needed": 0,
	"reputation_reward": 1,
	"exp_needed": 0,
	"max_exp_reward": 4,

	"questions": [

		{
			"id": "1",
			"text": "Hai visto? Il fratello di Lucia si è iscritto a un corso di danza!",
			"alt_text": "",
			"is_first": 1,
			"conversation_id": "1",

			"answers": [

				{
					"id": "1",
					"text": "Davvero? Che tipo di danza? ",
					"points": 2,
					"question_id": "1",
					"next_question_id": "2"
				},

				{
					"id": "2",
					"text": "Quale? Quello più muscoloso o quello più magro? ",
					"points": 1,
					"question_id": "1",
					"next_question_id": "2b"
				},

				{
					"id": "3",
					"text": "Ma non giocava a calcio?",
					"points": 1,
					"question_id": "1",
					"next_question_id": "2b"
				},

				{
					"id": "4",
					"text": "Lo trovo assurdo",
					"points": 0,
					"question_id": "1",
					"next_question_id": "2b"
				}
			]
		},

		{
			"id": "2",
			"text": "Che tipo di danza secondo te? Prova a indovinare tu...",
			"alt_text": "Il fratello più piccolo, giocava a calcio ma ora prova ad indovinare che tipo di danza balla",
			"is_first": 0,
			"conversation_id": "1",

			"answers": [

				{
					"id": "1",
					"text": "Non certo balletto, immagino!",
					"points": 0,
					"question_id": "2",
					"next_question_id": "3"
				},

				{
					"id": "2",
					"text": "L'unico tipo di danza che potrebbe fare è stare seduto su una sedia ",
					"points": 0,
					"question_id": 2,
					"next_question_id": "3"
				},

				{
					"id": "3",
					"text": "Balletto classico? Come Bolle?",
					"points": 2,
					"question_id": "2",
					"next_question_id": "4b"
				},

				{
					"id": "4",
					"text": "Break Dance",
					"points": 1,
					"question_id": "2",
					"next_question_id": "3"
				}
			]
		},

		{
			"id": "3",
			"text": "Perché non balletto? Non conosci Roberto Bolle? Non hai mai visto un ballerino maschio?",
			"is_first": 0,
			"conversation_id": "1",

			"answers": [

				{
					"id": "1",
					"text": "Ma chi è Roberto Bolle? Io conosco solo Ibrahimovic e Ronaldo",
					"points": 0,
					"question_id": "3",
					"next_question_id": "4"
				},

				{
					"id": "2",
					"text": "Non ho mai visto un ballerino maschio il balletto è solo da femmine",
					"points": 0,
					"question_id": "3",
					"next_question_id": ""
				},

				{
					"id": "3",
					"text": "Davvero? e cosa dicono i suoi compagni di classe?",
					"points": 1,
					"question_id": "3",
					"next_question_id": "5b"
				},

				{
					"id": "4",
					"text": "Sarà stata la sua mamma a costringerlo!",
					"points": 0,
					"question_id": 3,
					"next_question_id": ""
				}
			]
		},

		{
			"id": "4",
			"text": "Un famoso ballerino bravissimo! Alla Scala!",
			"alt_text": "Esatto, proprio come Bolle! Quel famoso ballerino della Scala!",
			"is_first": 0,
			"conversation_id": "1",

			"answers": [

				{
					"id": "1",
					"text": "Lui sarà pure famoso ma il balletto è da femmine",
					"points": 0,
					"question_id": "4",
					"next_question_id": ""
				},

				{
					"id": "2",
					"text": "Intendi che balla su una scala?",
					"points": 0,
					"question_id": "4",
					"next_question_id": ""
				},

				{
					"id": "3",
					"text": "Allora anche il fratello di Lucia potrebbe diventare così famoso!",
					"points": 2,
					"question_id": "4",
					"next_question_id": "5"
				},

				{
					"id": "4",
					"text": "E Lucia che dice?",
					"points": 1,
					"question_id": "4",
					"next_question_id": "6"
				}
			]
		},

		{
			"id": "5",
			"text": "Lucia è contenta come le sue amiche, anche loro fanno danza classica.",
			"alt_text": "Credo siano conetnti, soprattutto le sua amiche che fanno danza classica.",
			"is_first": 0,
			"conversation_id": "1",

			"answers": [

				{
					"id": "1",
					"text": "Mah non capisco cosa ci sia da essere contente sarebbe meglio se lui giocasse a calcio è uno sport più adatto ai maschi.",
					"points": 0,
					"question_id": "5",
					"next_question_id": ""
				},

				{
					"id": "2",
					"text": "Immagino che le sue amiche siano contente perchè finalmente possono ballare anche con un bimbo che fa la parte del principe azzurro e non si devono trasvestire da principe come capitava alle mie sorelle",
					"points": 1,
					"question_id": 5,
					"next_question_id": "6"
				},

				{
					"id": "3",
					"text": "Anch'io sarei felice, un domani potrei andare a vederlo ballare e vantarmi di quanto è bravo",
					"points": 2,
					"question_id": "5",
					"next_question_id": ""
				},

				{
					"id": "4",
					"text": "E i suoi amici? Di certo loro non saranno contenti...",
					"points": 0,
					"question_id": "5",
					"next_question_id": ""
				}
			]
		},

		{
			"id": "6",
			"text": "Credo che parteciperà al suo primo saggio la prossima settimana",
			"is_first": 0,
			"conversation_id": "1",

			"answers": [

				{
					"id": "1",
					"text": "Sono felice per lui, sarà molto euforico",
					"points": 1,
					"question_id": "6",
					"next_question_id": ""
				},

				{
					"id": "2",
					"text": "Fa ancora in tempo a scegliere il calcio prima che lo vedano in pubblico",
					"points": 1,
					"question_id": "6",
					"next_question_id": ""
				},

				{
					"id": "3",
					"text": "Sarà una fase, gli passerà e riprenderà a giocare a calcio come è giusto che sia per i maschietti della sua età",
					"points": 0,
					"question_id": "6",
					"next_question_id": ""
				},

				{
					"id": "4",
					"text": "Allora speriamo presto di vederlo su palcoscenici famosi",
					"points": 1,
					"question_id": "6",
					"next_question_id": ""
				}
			]

		}
	]
}