{
	"id": "8",
	"title": "Seminario di matematica",
	"desc": "Viva la matematica",
	"reputation_needed": 0,
	"reputation_reward": 1,
	"exp_needed": 0,
	"max_exp_reward": 4,

	"questions": [

		{
			"id": "1",
			"text": "Parlavo con Luigi, alla fine sua figlia ha deciso di fare di testa sua e si è iscritta alla facoltà di Matematica",
			"alt_text": "",
			"is_first": 1,
			"conversation_id": "1",

			"answers": [

				{
					"id": "1",
					"text": "Non credo di conoscere la figlia di Luigi, si sarà fatta convincere chissà da chi",
					"points": 0,
					"question_id": "1",
					"next_question_id": "2"
				},

				{
					"id": "2",
					"text": "Pessima scelta, come gli sarà venuto in mente",
					"points": 0,
					"question_id": "1",
					"next_question_id": "2"
				},

				{
					"id": "3",
					"text": "A me sembra un ottima scelta",
					"points": 1,
					"question_id": "1",
					"next_question_id": "2"
				},

				{
					"id": "4",
					"text": "Evidentemente era la facoltà che avrebbe voluto fare",
					"points": 1,
					"question_id": "1",
					"next_question_id": "2"
				}
			]
		},

		{
			"id": "2",
			"text": "Si sarà fatta condizionare chissà da chi, le sue maestre le avevano detto di fare economia",
			"is_first": 0,
			"conversation_id": "1",

			"answers": [

				{
					"id": "1",
					"text": "L'avranno convinta con quei discorsi \"fai quello che ti piace\" invece che fare quello che sarebbe stato più adatto per lei",
					"points": 0,
					"question_id": "2",
					"next_question_id": "3"
				},

				{
					"id": "2",
					"text": "Avrebbe dovuto ascoltare le maestre",
					"points": 0,
					"question_id": 2,
					"next_question_id": "3"
				},

				{
					"id": "3",
					"text": "Se ha scelto di far matematica evidentemente era quel che voleva fare di più",
					"points": 1,
					"question_id": "2",
					"next_question_id": "4"
				},

				{
					"id": "4",
					"text": "Non credo che, apparte lei stessa, nessuno possa dire cosa deve o non deve fare",
					"points": 1,
					"question_id": "2",
					"next_question_id": "4"
				}
			]
		},

		{
			"id": "3",
			"text": "vedrai che con tutta quella matematica finirà per abbandonare gli studi, invece se avesse fatto economia avrebbe sicuramente portato al termine il percorso",
			"is_first": 0,
			"conversation_id": "1",

			"answers": [

				{
					"id": "1",
					"text": "Sarà un altro dei tanti casi di ragazzi che abbandonano gli studi",
					"points": 0,
					"question_id": "3",
					"next_question_id": ""
				},

				{
					"id": "2",
					"text": "Mi spiace per lei, sarebbe potuta diventare una bravissima economista",
					"points": 0,
					"question_id": "3",
					"next_question_id": ""
				},

				{
					"id": "3",
					"text": "Anche economia è un percorso in cui la matematica è fondamentale",
					"points": 1,
					"question_id": "3",
					"next_question_id": "4"
				},

				{
					"id": "4",
					"text": "Tra le due facoltà cambia solo il livello di approfondimento, matematica è più teorica mentre economia più pratica, evidentemente lei preferisce la teoria",
					"points": 1,
					"question_id": 3,
					"next_question_id": "4"
				}
			]
		},

		{
			"id": "4",
			"text": "Poteva voler fare matematica ma con economia sarebbe stato più semplice arrivare in fondo",
			"is_first": 0,
			"conversation_id": "1",

			"answers": [

				{
					"id": "1",
					"text": "Di sicuro è più facile economia di matematica",
					"points": 0,
					"question_id": "4",
					"next_question_id": ""
				},

				{
					"id": "2",
					"text": "Mi spiace per lei, sarebbe potuta diventare una bravissima economista",
					"points": 0,
					"question_id": "4",
					"next_question_id": ""
				},

				{
					"id": "3",
					"text": "Anche economia è un percorso in cui la matematica è fondamentale",
					"points": 1,
					"question_id": "4",
					"next_question_id": "5"
				},

				{
					"id": "4",
					"text": "Tra le due facoltà cambia solo il livello di approfondimento, matematica è più teorica mentre economia più pratica, evidentemente lei preferisce la teoria",
					"points": 2,
					"question_id": "4",
					"next_question_id": "6"
				}
			]
		},

		{
			"id": "5",
			"text": "La matematica che si fa ad economia è più semplice di quella della facoltà di matematica",
			"is_first": 0,
			"conversation_id": "1",

			"answers": [

				{
					"id": "1",
					"text": "Questo è sicuro, la facoltà di matematica deve aver così tanta matematica da portare alla pazzia",
					"points": 0,
					"question_id": "5",
					"next_question_id": ""
				},

				{
					"id": "2",
					"text": "Vedrai che cambierà percorso",
					"points": 0,
					"question_id": 5,
					"next_question_id": ""
				},

				{
					"id": "3",
					"text": "Sono differenti gli approcci, ad economia si utilizza di più matematica applicata mentre nella facoltà di matematica si rimane più sull'astratto",
					"points": 1,
					"question_id": "5",
					"next_question_id": ""
				},

				{
					"id": "4",
					"text": "Il punto è che la base di partenza è la stessa, le 4 operazioni fondamentali e poi ogni facoltà si specializza nel tipo di matematica di cui ha bisogno",
					"points": 1,
					"question_id": "5",
					"next_question_id": ""
				}
			]
		},

		{
			"id": "6",
			"text": "Come si fa a preferire la matematica teorica, è una materia bruttissima solo pochi eletti sono in grado di sopportarla",
			"is_first": 0,
			"conversation_id": "1",

			"answers": [

				{
					"id": "1",
					"text": "Questo è sicuro, la facoltà di matematica deve aver così tanta matematica da portare alla pazzia",
					"points": 0,
					"question_id": "6",
					"next_question_id": ""
				},

				{
					"id": "2",
					"text": "Vedrai che cambierà percorso",
					"points": 1,
					"question_id": "6",
					"next_question_id": ""
				},

				{
					"id": "3",
					"text": "Non è necessario alcun talento, si impara tutto quel che serve in università basta forza di volontà",
					"points": 1,
					"question_id": "6",
					"next_question_id": ""
				},

				{
					"id": "4",
					"text": "Non è una questione di talento, è una questione di fare quel che ti piace, lei ha scelto quel che le piace vedrai che non avrà ostacoli a studiar tutta la matematica che vuole",
					"points": 2,
					"question_id": "6",
					"next_question_id": ""
				}
			]

		}
	]
}