[gd_resource type="StyleBoxFlat" format=2]

[resource]
bg_color = Color( 1, 1, 1, 1 )
corner_radius_top_left = 20
corner_radius_top_right = 20
corner_radius_bottom_right = 20
corner_radius_bottom_left = 20
